[
  {
    "address": "616 W 34th St AUSTIN, TX 78705",
    "geo_lat": 30.300486,
    "geo_lon": -97.74002,
    "hours": "",
    "price_range": "$$",
    "restaurant_name": "Food Heads",
    "restaurant_phone": "(512) 420-8400",
    "restaurant_website": "http://www.foodheads.com"
  },
  {
    "address": "2606 Guadalupe St  AUSTIN, TX 78705",
    "geo_lat": 30.291088,
    "geo_lon": -97.741489,
    "hours": "",
    "price_range": "",
    "restaurant_name": "Kerbey Lane Cafe",
    "restaurant_phone": "(512) 477-5717",
    "restaurant_website": "http://www.kerbeylanecafe.com"
  },
  {
    "address": "3500 Guadalupe St AUSTIN, TX 78705",
    "geo_lat": 30.301181,
    "geo_lon": -97.739143,
    "hours": "",
    "price_range": "",
    "restaurant_name": "Mangia Pizza",
    "restaurant_phone": "(512) 302-5200",
    "restaurant_website": "http://www.mangiapizza.com"
  },
  {
    "address": "3200 Guadalupe St AUSTIN, TX 78705",
    "geo_lat": 30.299184,
    "geo_lon": -97.740407,
    "hours": "",
    "price_range": "",
    "restaurant_name": "Thundercloud Subs",
    "restaurant_phone": "(512) 452-5010",
    "restaurant_website": "http://www.thundercloud.com"
  },
  {
    "address": "2828 Rio Grande St AUSTIN, TX 78705",
    "geo_lat": 30.295524,
    "geo_lon": -97.743926,
    "hours": "",
    "price_range": "",
    "restaurant_name": "Tony's Vineyard",
    "restaurant_phone": "(512) 476-5600",
    "restaurant_website": "http://www.tonysvineyard.com"
  },
  {
    "address": "2313 Rio Grande St AUSTIN, TX 78705",
    "geo_lat": 30.287678,
    "geo_lon": -97.744489,
    "hours": "",
    "price_range": "$$",
    "restaurant_name": "Cain & Abels",
    "restaurant_phone": "(512) 476-3201",
    "restaurant_website": "http://cainandabels.com/"
  },
  {
    "address": "2552 Guadalupe St AUSTIN, TX 78705",
    "geo_lat": 30.290184,
    "geo_lon": -97.741598,
    "hours": "",
    "price_range": "",
    "restaurant_name": "Jack in the Box",
    "restaurant_phone": "(512) 474-1708",
    "restaurant_website": ""
  },
  {
    "address": "3711 Guadalupe St Austin, TX 78705",
    "geo_lat": 30.302256,
    "geo_lon": -97.738045,
    "hours": "",
    "price_range": "",
    "restaurant_name": "Gatti's Pizza",
    "restaurant_phone": "(512) 459-6064",
    "restaurant_website": ""
  },
  {
    "address": "2820 Guadalupe St Austin, TX 78705",
    "geo_lat": 30.294903,
    "geo_lon": -97.742989,
    "hours": "",
    "price_range": "",
    "restaurant_name": "Donuts From Ken's",
    "restaurant_phone": "(512) 323-0206",
    "restaurant_website": ""
  },
  {
    "address": "512 W 29th St Austin, TX 78705",
    "geo_lat": 30.295381,
    "geo_lon": -97.742511,
    "hours": "",
    "price_range": "$$",
    "restaurant_name": "Ruby's BBQ",
    "restaurant_phone": "(512) 477-1651",
    "restaurant_website": "http://rubysbbq.com/"
  },
  {
    "address": "1914 Guadalupe St AUSTIN, TX 78705",
    "geo_lat": 30.282657,
    "geo_lon": -97.742045,
    "hours": "",
    "price_range": "",
    "restaurant_name": "Veggie Heaven",
    "restaurant_phone": "(512) 457-1013",
    "restaurant_website": ""
  },
  {
    "address": "2602 Guadalupe St AUSTIN, TX 78705",
    "geo_lat": 30.290694,
    "geo_lon": -97.74135,
    "hours": "",
    "price_range": "$$",
    "restaurant_name": "Thai Noodles Etc.",
    "restaurant_phone": "(512) 323-0206",
    "restaurant_website": "http://thainoodlesetc.com"
  },
  {
    "address": "2350 Guadalupe St AUSTIN, TX 78705",
    "geo_lat": 30.287114,
    "geo_lon": -97.74164,
    "hours": "",
    "price_range": "",
    "restaurant_name": "The Pita Pit",
    "restaurant_phone": "(512) 474-7482",
    "restaurant_website": "http://www.pitapit.com"
  },
  {
    "address": "3500 Guadalupe St Austin, TX 78705",
    "geo_lat": 30.301323,
    "geo_lon": -97.739288,
    "hours": "",
    "price_range": "$",
    "restaurant_name": "Amy's Ice Creams",
    "restaurant_phone": "(512) 458-6895",
    "restaurant_website": "http://www.amysicecreams.com"
  },
  {
    "address": "907 W 24th St AUSTIN, TX 78705",
    "geo_lat": 30.288103,
    "geo_lon": -97.746897,
    "hours": "",
    "price_range": "",
    "restaurant_name": "Wing Zone",
    "restaurant_phone": "(512) 370-2473",
    "restaurant_website": "http://www.wingzone.com"
  },
  {
    "address": "2000 Guadalupe St Austin, TX 78705",
    "geo_lat": 30.282841,
    "geo_lon": -97.742401,
    "hours": "",
    "price_range": "",
    "restaurant_name": "Taco Bell",
    "restaurant_phone": "",
    "restaurant_website": "http://www.tacobell.com"
  },
  {
    "address": "2700 Guadalupe St AUSTIN, TX 78705",
    "geo_lat": 30.292245,
    "geo_lon": -97.741617,
    "hours": "",
    "price_range": "",
    "restaurant_name": "Burger King",
    "restaurant_phone": "(512) 477-5672",
    "restaurant_website": ""
  },
  {
    "address": "409 W 30th St Austin, TX 78705",
    "geo_lat": 30.295729,
    "geo_lon": -97.741119,
    "hours": "",
    "price_range": "",
    "restaurant_name": "Trudy's",
    "restaurant_phone": "(512) 477-2935",
    "restaurant_website": ""
  },
  {
    "address": "1204 W 38th St AUSTIN, TX 78705",
    "geo_lat": 30.306758,
    "geo_lon": -97.744726,
    "hours": "",
    "price_range": "",
    "restaurant_name": "Hickory Honey Hams",
    "restaurant_phone": "(512) 459-4267",
    "restaurant_website": ""
  },
  {
    "address": "2025 Guadalupe St AUSTIN, TX 78705",
    "geo_lat": 30.283295,
    "geo_lon": -97.741791,
    "hours": "",
    "price_range": "",
    "restaurant_name": "Hoa Hoa Dobie",
    "restaurant_phone": "(512) 505-0155",
    "restaurant_website": ""
  },
  {
    "address": "3704 North Interstate Highway 35 Austin, TX 78705",
    "geo_lat": 30.294174,
    "geo_lon": -97.720528,
    "hours": "",
    "price_range": "$$",
    "restaurant_name": "Cafe Hornitos",
    "restaurant_phone": "(512) 524-4195",
    "restaurant_website": "http://cafehornitos.com"
  },
  {
    "address": "2909 Guadalupe St Austin, TX 78705",
    "geo_lat": 30.295639,
    "geo_lon": -97.742522,
    "hours": "",
    "price_range": "",
    "restaurant_name": "Milto's Mediterranean Cafe",
    "restaurant_phone": "(512) 476-1021",
    "restaurant_website": ""
  },
  {
    "address": "2900 Duval St AUSTIN, TX 78705",
    "geo_lat": 30.291544,
    "geo_lon": -97.734857,
    "hours": "",
    "price_range": "$",
    "restaurant_name": "Posse East",
    "restaurant_phone": "(512) 477-2111",
    "restaurant_website": "http://www.posse-east.com"
  },
  {
    "address": "624 W 34th St AUSTIN, TX 78705",
    "geo_lat": 30.301032,
    "geo_lon": -97.740556,
    "hours": "",
    "price_range": "$$$",
    "restaurant_name": "Salvation Pizza",
    "restaurant_phone": "(512) 535-0076",
    "restaurant_website": "http://salvationpizza.com"
  },
  {
    "address": "1206 W 38th St AUSTIN, TX 78705",
    "geo_lat": 30.306155,
    "geo_lon": -97.744868,
    "hours": "",
    "price_range": "$$",
    "restaurant_name": "Santa Rita Cantina",
    "restaurant_phone": "(512) 419-7482",
    "restaurant_website": "http://www.santaritacantina.com"
  },
  {
    "address": "2910 Guadalupe Blvd Austin, TX 78705",
    "geo_lat": 30.295854,
    "geo_lon": -97.742717,
    "hours": "",
    "price_range": "",
    "restaurant_name": "Yen Ching Noodle House",
    "restaurant_phone": "(512) 472-4754",
    "restaurant_website": ""
  },
  {
    "address": "2001 Guadalupe St AUSTIN, TX 78705",
    "geo_lat": 30.282748,
    "geo_lon": -97.741908,
    "hours": "",
    "price_range": "",
    "restaurant_name": "Flying Falafel & Poboys",
    "restaurant_phone": "(512) 494-1400",
    "restaurant_website": ""
  },
  {
    "address": "2804 N Interstate 35 Austin, TX 78705",
    "geo_lat": 30.287102,
    "geo_lon": -97.724822,
    "hours": "",
    "price_range": "$",
    "restaurant_name": "Aster's Ethiopian Restaurant",
    "restaurant_phone": "(512) 469-5966",
    "restaurant_website": "http://www.astersethiopian.com/"
  },
  {
    "address": "2809 San Jacinto Blvd AUSTIN, TX 78705",
    "geo_lat": 30.290527,
    "geo_lon": -97.734465,
    "hours": "",
    "price_range": "$",
    "restaurant_name": "Sao Paulo's Restaurant",
    "restaurant_phone": "(512) 473-9988",
    "restaurant_website": "http://www.saopaulos.net"
  },
  {
    "address": "3211 Red River St Austin, TX 78705",
    "geo_lat": 30.291418,
    "geo_lon": -97.726963,
    "hours": "",
    "price_range": "",
    "restaurant_name": "Cornucopia Popcorn",
    "restaurant_phone": "(512) 477-2676",
    "restaurant_website": ""
  },
  {
    "address": "3301 North Lamar Boulevard Austin, TX 78705",
    "geo_lat": 30.301748,
    "geo_lon": -97.744873,
    "hours": "",
    "price_range": "",
    "restaurant_name": "Taqueria Anyeli",
    "restaurant_phone": "(877) 585-1085",
    "restaurant_website": "http:///tx/austin/668736-taqueria-anyeli/"
  },
  {
    "address": "2100 University Avenue Austin, TX 78705",
    "geo_lat": 30.283634,
    "geo_lon": -97.739723,
    "hours": "",
    "price_range": "",
    "restaurant_name": "Greenade",
    "restaurant_phone": "(877) 585-1085",
    "restaurant_website": "http:///tx/austin/668748-greenade/"
  },
  {
    "address": "1206 West 38th Street Austin, TX 78705",
    "geo_lat": 30.306583,
    "geo_lon": -97.745232,
    "hours": "",
    "price_range": "",
    "restaurant_name": "Santa Rita Tex-Mex Cantina",
    "restaurant_phone": "(512) 419-7482",
    "restaurant_website": "http:///tx/austin/671394-santa-rita-tex-mex-cantina/"
  },
  {
    "address": "907 West 24th Street Austin, TX 78705",
    "geo_lat": 30.287903,
    "geo_lon": -97.747376,
    "hours": "",
    "price_range": "",
    "restaurant_name": "Bert's BBQ",
    "restaurant_phone": "(512) 474-2613",
    "restaurant_website": "http:///tx/austin/671395-berts-bbq/"
  },
  {
    "address": "2800 Guadalupe Street Austin, TX 78705",
    "geo_lat": 30.293451,
    "geo_lon": -97.742157,
    "hours": "",
    "price_range": "",
    "restaurant_name": "Whataburger",
    "restaurant_phone": "(512) 480-5993",
    "restaurant_website": "http:///tx/austin/682157-whataburger/"
  },
  {
    "address": "3000 Duval St AUSTIN, TX 78705",
    "geo_lat": 30.292088,
    "geo_lon": -97.734301,
    "hours": "",
    "price_range": "",
    "restaurant_name": "DoubleDave's Pizza Works",
    "restaurant_phone": "(512) 476-3283",
    "restaurant_website": "http://www.doubledaves.com/"
  },
  {
    "address": "411 West 23rd Street Austin, TX 78705",
    "geo_lat": 30.286198,
    "geo_lon": -97.742561,
    "hours": "",
    "price_range": "",
    "restaurant_name": "Jefes Street Tacos",
    "restaurant_phone": "(512) 459-0034",
    "restaurant_website": "http:///tx/austin/756404-jefes-street-tacos/"
  },
  {
    "address": "201 E 21st St Austin, TX 78705",
    "geo_lat": 30.282486,
    "geo_lon": -97.736366,
    "hours": "",
    "price_range": "",
    "restaurant_name": "Wendy's",
    "restaurant_phone": "(777) 777-7777",
    "restaurant_website": "http:///tx/austin/762825-wendys/"
  },
  {
    "address": "104 East 31st Street Austin, TX 78705",
    "geo_lat": 30.295107,
    "geo_lon": -97.73642,
    "hours": "",
    "price_range": "",
    "restaurant_name": "Vaquero Taquero",
    "restaurant_phone": "(877) 585-1085",
    "restaurant_website": "http:///tx/austin/773568-vaquero-taquero/"
  },
  {
    "address": "2908 Fruth Street Austin, TX 78705",
    "geo_lat": 30.295496,
    "geo_lon": -97.741745,
    "hours": "",
    "price_range": "",
    "restaurant_name": "Milky Way Shakes",
    "restaurant_phone": "(877) 585-1085",
    "restaurant_website": "http:///tx/austin/773881-milky-way-shakes/"
  },
  {
    "address": "2828 Guadalupe Street Austin, TX 78705",
    "geo_lat": 30.295151,
    "geo_lon": -97.743149,
    "hours": "",
    "price_range": "",
    "restaurant_name": "JuiceLand",
    "restaurant_phone": "(512) 494-6905",
    "restaurant_website": "http:///tx/austin/773979-juiceland/"
  },
  {
    "address": "2402 Guadalupe Street Austin, TX 78705",
    "geo_lat": 30.287888,
    "geo_lon": -97.741966,
    "hours": "",
    "price_range": "",
    "restaurant_name": "Baskin Robbins",
    "restaurant_phone": "(512) 220-0492",
    "restaurant_website": "http:///tx/austin/776326-baskin-robbins/"
  },
  {
    "address": "2826 Rio Grande Street Austin, TX 78705",
    "geo_lat": 30.295569,
    "geo_lon": -97.744194,
    "hours": "",
    "price_range": "",
    "restaurant_name": "Polkadots Cupcake Factory",
    "restaurant_phone": "(512) 476-3687",
    "restaurant_website": "http:///tx/austin/776577-polkadots-cupcake-factory/"
  },
  {
    "address": "2610 Guadalupe Street Austin, TX 78705",
    "geo_lat": 30.291565,
    "geo_lon": -97.741478,
    "hours": "",
    "price_range": "",
    "restaurant_name": "All My Ex's",
    "restaurant_phone": "(512) 585-5939",
    "restaurant_website": "http:///tx/austin/776424-all-my-exs/"
  },
  {
    "address": "3706 Guadalupe St AUSTIN, TX 78705",
    "geo_lat": 30.302506,
    "geo_lon": -97.73862,
    "hours": "",
    "price_range": "",
    "restaurant_name": "Starbucks Coffee",
    "restaurant_phone": "(512) 380-0439",
    "restaurant_website": "http://www.starbucks.com"
  },
  {
    "address": "504 W 24th St AUSTIN, TX 78705",
    "geo_lat": 30.287941,
    "geo_lon": -97.742597,
    "hours": "",
    "price_range": "",
    "restaurant_name": "Starbucks Coffee",
    "restaurant_phone": "(512) 472-5211",
    "restaurant_website": "http://www.starbucks.com"
  },
  {
    "address": "2300 Guadalupe St AUSTIN, TX 78705",
    "geo_lat": 30.286652,
    "geo_lon": -97.74198,
    "hours": "",
    "price_range": "",
    "restaurant_name": "Jamba Juice",
    "restaurant_phone": "(512) 275-0290",
    "restaurant_website": "http://www.jambajuice.com"
  },
  {
    "address": "2405 Nueces St AUSTIN, TX 78705",
    "geo_lat": 30.288232,
    "geo_lon": -97.74286,
    "hours": "",
    "price_range": "",
    "restaurant_name": "Quiznos Sub",
    "restaurant_phone": "(512) 479-7849",
    "restaurant_website": "http://www.quiznos.com/"
  },
  {
    "address": "801 W 38th St AUSTIN, TX 78705",
    "geo_lat": 30.304258,
    "geo_lon": -97.741874,
    "hours": "",
    "price_range": "",
    "restaurant_name": "Quiznos Sub",
    "restaurant_phone": "(512) 419-9193",
    "restaurant_website": "http://www.quiznos.com/"
  },
  {
    "address": "1005 W 34th St AUSTIN, TX 78705",
    "geo_lat": 30.302745,
    "geo_lon": -97.744841,
    "hours": "",
    "price_range": "$",
    "restaurant_name": "34th Street Cafe",
    "restaurant_phone": "(512) 371-3400",
    "restaurant_website": "http://www.34thstreetcafe.com"
  },
  {
    "address": "2905 San Gabriel St AUSTIN, TX 78705",
    "geo_lat": 30.297905,
    "geo_lon": -97.747674,
    "hours": "",
    "price_range": "$",
    "restaurant_name": "Fino",
    "restaurant_phone": "(512) 474-2905",
    "restaurant_website": "http://www.finoaustin.com"
  },
  {
    "address": "2324 Guadalupe St AUSTIN, TX 78705",
    "geo_lat": 30.287001,
    "geo_lon": -97.741735,
    "hours": "",
    "price_range": "$$$",
    "restaurant_name": "Austin's Pizza",
    "restaurant_phone": "(512) 795-8888",
    "restaurant_website": "http://www.austinspizza.com"
  },
  {
    "address": "2901 Medical Arts St AUSTIN, TX 78705",
    "geo_lat": 30.288596,
    "geo_lon": -97.728657,
    "hours": "",
    "price_range": "",
    "restaurant_name": "Longhorn Poboys And Falafel",
    "restaurant_phone": "(512) 495-9228",
    "restaurant_website": ""
  },
  {
    "address": "2912 Medical Arts St AUSTIN, TX 78705",
    "geo_lat": 30.289703,
    "geo_lon": -97.728463,
    "hours": "Mon-Fri: 7am-8pmSat &amp; Sun: 8am-5pm",
    "price_range": "$",
    "restaurant_name": "Red River Cafe",
    "restaurant_phone": "(512) 472-0385",
    "restaurant_website": ""
  },
  {
    "address": "2522 Guadalupe St Austin, TX 78705",
    "geo_lat": 30.28981,
    "geo_lon": -97.741646,
    "hours": "",
    "price_range": "",
    "restaurant_name": "Kokodak",
    "restaurant_phone": "(512) 551-8231",
    "restaurant_website": "http:///tx/austin/587541-kokodak/"
  },
  {
    "address": "3000 Duval St Austin, TX 78705",
    "geo_lat": 30.292042,
    "geo_lon": -97.734352,
    "hours": "",
    "price_range": "",
    "restaurant_name": "The Varsity Pizza & Pints",
    "restaurant_phone": "(512) 538-1514",
    "restaurant_website": "http:///tx/austin/594065-the-varsity-pizza-pints/"
  },
  {
    "address": "2416 Guadalupe St Austin, TX 78705",
    "geo_lat": 30.288292,
    "geo_lon": -97.741684,
    "hours": "",
    "price_range": "",
    "restaurant_name": "Left Wing",
    "restaurant_phone": "(512) 798-3675",
    "restaurant_website": "http:///tx/austin/596070-left-wing/"
  },
  {
    "address": "2001 Guadalupe St Ste A1 Austin, TX 78705",
    "geo_lat": 30.282904,
    "geo_lon": -97.741737,
    "hours": "",
    "price_range": "",
    "restaurant_name": "Poke Bay",
    "restaurant_phone": "(512) 350-2419",
    "restaurant_website": "http:///tx/austin/602404-poke-bay/"
  },
  {
    "address": "606 Maiden Ln Austin, TX 78705",
    "geo_lat": 30.301901,
    "geo_lon": -97.739357,
    "hours": "",
    "price_range": "",
    "restaurant_name": "Wayside",
    "restaurant_phone": "(512) 831-9900",
    "restaurant_website": "http:///tx/austin/602950-wayside/"
  },
  {
    "address": "2512 Rio Grand Street Austin, TX 78705",
    "geo_lat": 30.290562,
    "geo_lon": -97.744643,
    "hours": "",
    "price_range": "",
    "restaurant_name": "Craft Woodfire Pizza",
    "restaurant_phone": "(512) 200-4032",
    "restaurant_website": "http:///tx/austin/605354-craft-woodfire-pizza/"
  },
  {
    "address": "2604 Guadalupe St Austin, TX 78705",
    "geo_lat": 30.291023,
    "geo_lon": -97.741562,
    "hours": "",
    "price_range": "",
    "restaurant_name": "Roppolo's Pizzeria West Campus",
    "restaurant_phone": "(512) 265-2121",
    "restaurant_website": "http:///tx/austin/622800-roppolos-pizzeria-west-campus/"
  },
  {
    "address": "2011 Whitis Ave Austin, TX 78705",
    "geo_lat": 30.283089,
    "geo_lon": -97.74057,
    "hours": "",
    "price_range": "",
    "restaurant_name": "Greenade",
    "restaurant_phone": "(812) 606-9686",
    "restaurant_website": "http:///tx/austin/630141-greenade/"
  },
  {
    "address": "705 West 24th Street Austin, TX 78705",
    "geo_lat": 30.287739,
    "geo_lon": -97.745598,
    "hours": "",
    "price_range": "",
    "restaurant_name": "Sushi Niichi",
    "restaurant_phone": "(512) 469-0499",
    "restaurant_website": "http:///tx/austin/660740-sushi-niichi/"
  },
  {
    "address": "907 W 24th St Austin, TX 78705",
    "geo_lat": 30.287903,
    "geo_lon": -97.747375,
    "hours": "",
    "price_range": "",
    "restaurant_name": "Chef Hong Food Trailer",
    "restaurant_phone": "(877) 585-1085",
    "restaurant_website": "http:///tx/austin/660763-chef-hong-food-trailer/"
  },
  {
    "address": "2025 Guadalupe Street Austin, TX 78705",
    "geo_lat": 30.283382,
    "geo_lon": -97.741379,
    "hours": "",
    "price_range": "",
    "restaurant_name": "Burrito Factory",
    "restaurant_phone": "(512) 227-5060",
    "restaurant_website": "http:///tx/austin/660787-burrito-factory/"
  },
  {
    "address": "3500b Guadalupe Street Austin, TX 78705",
    "geo_lat": 30.301525,
    "geo_lon": -97.739372,
    "hours": "",
    "price_range": "",
    "restaurant_name": "Blenders and Bowls",
    "restaurant_phone": "(512) 305-3530",
    "restaurant_website": "http:///tx/austin/660796-blenders-and-bowls/"
  },
  {
    "address": "510 West 26th Street Austin, TX 78705",
    "geo_lat": 30.291002,
    "geo_lon": -97.74231,
    "hours": "",
    "price_range": "",
    "restaurant_name": "Madam Mam's",
    "restaurant_phone": "(512) 472-8306",
    "restaurant_website": "http:///tx/austin/660838-madam-mams/"
  },
  {
    "address": "1900 Rio Grande Austin, TX 78705",
    "geo_lat": 30.283023,
    "geo_lon": -97.745524,
    "hours": "",
    "price_range": "$",
    "restaurant_name": "Goodall's Kitchen & Bar",
    "restaurant_phone": "(512) 495-1800",
    "restaurant_website": "http://goodallskitchen.com/"
  },
  {
    "address": "2100 Guadalupe St Austin, TX 78705",
    "geo_lat": 30.28388,
    "geo_lon": -97.742055,
    "hours": "",
    "price_range": "$$",
    "restaurant_name": "Thai How Are You",
    "restaurant_phone": "(512) 323-0206",
    "restaurant_website": ""
  },
  {
    "address": "2021 Guadalupe Street #236 Austin, TX 78705",
    "geo_lat": 30.28326,
    "geo_lon": -97.741739,
    "hours": "",
    "price_range": "$",
    "restaurant_name": "VERTS Kebap",
    "restaurant_phone": "(512) 800-7437",
    "restaurant_website": "http://www.vertskebap.com/"
  },
  {
    "address": "3303 North Lamar Boulevard Austin, TX 78705",
    "geo_lat": 30.301754,
    "geo_lon": -97.744873,
    "hours": "",
    "price_range": "$",
    "restaurant_name": "P. Terry's Burger Stand",
    "restaurant_phone": "(512) 371-9975",
    "restaurant_website": "http://www.pterrys.com"
  },
  {
    "address": "2405 Nueces Street Austin, TX 78705",
    "geo_lat": 30.288207,
    "geo_lon": -97.742866,
    "hours": "",
    "price_range": "$$",
    "restaurant_name": "Fricano's Deli",
    "restaurant_phone": "(512) 482-3322",
    "restaurant_website": "http://www.fricanosdeli.com"
  },
  {
    "address": "3101 Guadalupe Street Austin, TX 78705",
    "geo_lat": 30.297615,
    "geo_lon": -97.741044,
    "hours": "",
    "price_range": "$",
    "restaurant_name": "Wheatsville Co-op",
    "restaurant_phone": "(512) 478-2667",
    "restaurant_website": "http://www.wheatsville.coop"
  },
  {
    "address": "2911 San Jacinto Boulevard Austin, TX 78705",
    "geo_lat": 30.29254,
    "geo_lon": -97.735626,
    "hours": "",
    "price_range": "$",
    "restaurant_name": "Crown and Anchor Pub",
    "restaurant_phone": "(512) 322-9168",
    "restaurant_website": "http://crownandanchorpub.com/"
  },
  {
    "address": "2402 San Gabriel Street Austin, TX 78705",
    "geo_lat": 30.288426,
    "geo_lon": -97.748021,
    "hours": "",
    "price_range": "$$",
    "restaurant_name": "Freedmen's",
    "restaurant_phone": "(512) 220-0953",
    "restaurant_website": "http://www.freedmensbar.com"
  },
  {
    "address": "2100B Guadalupe St Austin, TX 78705",
    "geo_lat": 30.28401,
    "geo_lon": -97.742296,
    "hours": "",
    "price_range": "$$",
    "restaurant_name": "Teji's Indian Restaurant & Grocery",
    "restaurant_phone": "(512) 215-0307",
    "restaurant_website": "http://www.tejifoods.com/"
  },
  {
    "address": "3110 Guadalupe St Austin, TX 78705",
    "geo_lat": 30.298485,
    "geo_lon": -97.7412,
    "hours": "",
    "price_range": "$$$",
    "restaurant_name": "Hopfields",
    "restaurant_phone": "(512) 537-0467",
    "restaurant_website": "http://hopfieldsaustin.com/"
  },
  {
    "address": "2900 Guadalupe St Austin, TX 78705",
    "geo_lat": 30.295644,
    "geo_lon": -97.742892,
    "hours": "",
    "price_range": "$",
    "restaurant_name": "Royers Pie Haven",
    "restaurant_phone": "(512) 474-2800",
    "restaurant_website": "http://royerspiehaven.com"
  },
  {
    "address": "2021 Guadalupe St Ste 246 Austin, TX 78705",
    "geo_lat": 30.28324,
    "geo_lon": -97.74147,
    "hours": "",
    "price_range": "$$",
    "restaurant_name": "Flip Jack Crepes",
    "restaurant_phone": "(512) 476-3547",
    "restaurant_website": ""
  },
  {
    "address": "2604 Guadalupe St Austin, TX 78705",
    "geo_lat": 30.2909,
    "geo_lon": -97.74132,
    "hours": "",
    "price_range": "$$",
    "restaurant_name": "Fat Sal's",
    "restaurant_phone": "(512) 323-0206",
    "restaurant_website": ""
  },
  {
    "address": "2222 Rio Grande St Ste 190 Austin, TX 78705",
    "geo_lat": 30.286892,
    "geo_lon": -97.745033,
    "hours": "",
    "price_range": "$",
    "restaurant_name": "BarleyBean",
    "restaurant_phone": "(512) 382-9106",
    "restaurant_website": ""
  },
  {
    "address": "2402 Guadalupe Street Austin, TX 78705",
    "geo_lat": 30.287872,
    "geo_lon": -97.741943,
    "hours": "",
    "price_range": "$$$$",
    "restaurant_name": "Noodles & Company",
    "restaurant_phone": "(512) 499-0016",
    "restaurant_website": "http://noodles.com"
  },
  {
    "address": "4616 Triangle Avenue Austin, TX 78705",
    "geo_lat": 30.314353,
    "geo_lon": -97.733968,
    "hours": "",
    "price_range": "$",
    "restaurant_name": "Galaxy Cafe",
    "restaurant_phone": "(512) 323-9494",
    "restaurant_website": "http://www.galaxycafeaustin.com"
  },
  {
    "address": "3209 Red River St Austin, TX 78705",
    "geo_lat": 30.291381,
    "geo_lon": -97.726988,
    "hours": "",
    "price_range": "$",
    "restaurant_name": "Mary's Pop Shop",
    "restaurant_phone": "(512) 334-9460",
    "restaurant_website": "http://NULL"
  },
  {
    "address": "2246 Guadalupe St Austin, TX 78705",
    "geo_lat": 30.28579,
    "geo_lon": -97.741744,
    "hours": "",
    "price_range": "$",
    "restaurant_name": "Psycha Delhi",
    "restaurant_phone": "(512) 350-6713",
    "restaurant_website": ""
  },
  {
    "address": "2901 Medical Arts Street Austin, TX 78705",
    "geo_lat": 30.288595,
    "geo_lon": -97.72847,
    "hours": "",
    "price_range": "$$",
    "restaurant_name": "Snarf's",
    "restaurant_phone": "(512) 687-2600",
    "restaurant_website": ""
  },
  {
    "address": "2801 Guadalupe St AUSTIN, TX 78705",
    "geo_lat": 30.293735,
    "geo_lon": -97.741718,
    "hours": "",
    "price_range": "$$",
    "restaurant_name": "Sun Hing",
    "restaurant_phone": "(512) 478-6504",
    "restaurant_website": ""
  },
  {
    "address": "2514 Guadalupe St AUSTIN, TX 78705",
    "geo_lat": 30.289671,
    "geo_lon": -97.74164,
    "hours": "",
    "price_range": "$$",
    "restaurant_name": "Madam Mam's Noodle & More",
    "restaurant_phone": "(512) 472-8306",
    "restaurant_website": "http://www.madammam.com"
  },
  {
    "address": "3303 N Lamar Blvd AUSTIN, TX 78705",
    "geo_lat": 30.301958,
    "geo_lon": -97.74519,
    "hours": "",
    "price_range": "$",
    "restaurant_name": "Hill-berts Burgers",
    "restaurant_phone": "(512) 452-2317",
    "restaurant_website": "http://www.hill-bertsburgers.com"
  },
  {
    "address": "3423 Guadalupe St Austin, TX 78705",
    "geo_lat": 30.300997,
    "geo_lon": -97.739044,
    "hours": "",
    "price_range": "",
    "restaurant_name": "Zen Japanese Food Fast",
    "restaurant_phone": "(512) 300-2633",
    "restaurant_website": "http://www.eatzen.com"
  },
  {
    "address": "2404 Guadalupe St AUSTIN, TX 78705",
    "geo_lat": 30.287944,
    "geo_lon": -97.74156,
    "hours": "",
    "price_range": "",
    "restaurant_name": "Einstein Bros Bagels",
    "restaurant_phone": "(521) 457-8722",
    "restaurant_website": "http://www.einsteinbros.com"
  },
  {
    "address": "3520 N Lamar Blvd AUSTIN, TX 78705",
    "geo_lat": 30.30357,
    "geo_lon": -97.744151,
    "hours": "",
    "price_range": "",
    "restaurant_name": "Boston Market",
    "restaurant_phone": "(512) 371-3988",
    "restaurant_website": "http://www.bostonmarket.com"
  },
  {
    "address": "1104 W 34th St Austin, TX 78705",
    "geo_lat": 30.303467,
    "geo_lon": -97.745763,
    "hours": "",
    "price_range": "$",
    "restaurant_name": "Delaware Sub Shop (W 34th St)",
    "restaurant_phone": "(512) 458-8423",
    "restaurant_website": "http://www.delawaresub.com"
  },
  {
    "address": "2512 Rio Grande St Austin, TX 78705",
    "geo_lat": 30.29049,
    "geo_lon": -97.7444,
    "hours": "",
    "price_range": "",
    "restaurant_name": "Espadas de Brazil",
    "restaurant_phone": "(512) 965-3266",
    "restaurant_website": "http:///tx/austin/535741-espadas-de-brazil/"
  },
  {
    "address": "3316 Harmon Ave Austin, TX 78705",
    "geo_lat": 30.291731,
    "geo_lon": -97.723381,
    "hours": "",
    "price_range": "",
    "restaurant_name": "Austin's Habibi",
    "restaurant_phone": "(512) 428-5003",
    "restaurant_website": "http:///tx/austin/538771-austins-habibi/"
  },
  {
    "address": "3023 Guadalupe St Austin, TX 78705",
    "geo_lat": 30.297041,
    "geo_lon": -97.741432,
    "hours": "",
    "price_range": "$",
    "restaurant_name": "Changos Taqueria",
    "restaurant_phone": "(512) 480-8226",
    "restaurant_website": "http://www.changos.com"
  },
  {
    "address": "603 W 29th St AUSTIN, TX 78705",
    "geo_lat": 30.295369,
    "geo_lon": -97.743261,
    "hours": "",
    "price_range": "$$$",
    "restaurant_name": "Conans Pizza",
    "restaurant_phone": "(512) 478-5712",
    "restaurant_website": "http://www.conanspizza.com/"
  },
  {
    "address": "2718 Guadalupe St Austin, TX 78705",
    "geo_lat": 30.292904,
    "geo_lon": -97.741768,
    "hours": "",
    "price_range": "",
    "restaurant_name": "Abu Omar Halal",
    "restaurant_phone": "(512) 557-9818",
    "restaurant_website": "http:///tx/austin/544127-abu-omar-halal/"
  },
  {
    "address": "2908 Fruth St Austin, TX 78705",
    "geo_lat": 30.295504,
    "geo_lon": -97.74176,
    "hours": "",
    "price_range": "",
    "restaurant_name": "Cool Beans",
    "restaurant_phone": "(512) 887-8139",
    "restaurant_website": "http:///tx/austin/547349-cool-beans/"
  },
  {
    "address": "706 W 23rd St Austin, TX 78705",
    "geo_lat": 30.287226,
    "geo_lon": -97.744821,
    "hours": "",
    "price_range": "",
    "restaurant_name": "Yalla Burgers & Wings",
    "restaurant_phone": "(512) 545-0804",
    "restaurant_website": "http:///tx/austin/547829-yalla-burgers-wings/"
  },
  {
    "address": "2718 Gudalupe St Austin, TX 78705",
    "geo_lat": 30.292957,
    "geo_lon": -97.741844,
    "hours": "",
    "price_range": "",
    "restaurant_name": "Mount 8k",
    "restaurant_phone": "(512) 964-3737",
    "restaurant_website": "http:///tx/austin/554938-mount-8k/"
  },
  {
    "address": "620 W 29th St Austin, TX 78705",
    "geo_lat": 30.296099,
    "geo_lon": -97.743561,
    "hours": "",
    "price_range": "",
    "restaurant_name": "Afghan Halal",
    "restaurant_phone": "(737) 228-6881",
    "restaurant_website": "http:///tx/austin/567106-afghan-halal/"
  },
  {
    "address": "2214 San Antonio St Austin, TX 78705",
    "geo_lat": 30.286163,
    "geo_lon": -97.743111,
    "hours": "",
    "price_range": "",
    "restaurant_name": "ATX Gyro",
    "restaurant_phone": "(512) 704-2675",
    "restaurant_website": "http:///tx/austin/567454-atx-gyro/"
  },
  {
    "address": "2512 Rio Grande St Austin, TX 78705",
    "geo_lat": 30.290524,
    "geo_lon": -97.74469,
    "hours": "",
    "price_range": "",
    "restaurant_name": "King?s BBQ & Soul",
    "restaurant_phone": "(512) 354-0101",
    "restaurant_website": "http:///tx/austin/571050-kings-bbq-soul/"
  },
  {
    "address": "609 W 29th St Austin, TX 78705",
    "geo_lat": 30.295349,
    "geo_lon": -97.743439,
    "hours": "",
    "price_range": "",
    "restaurant_name": "Growler USA",
    "restaurant_phone": "(512) 800-9532",
    "restaurant_website": "http:///tx/austin/571441-growler-usa/"
  },
  {
    "address": "2100 Guadalupe Street Austin, TX 78705",
    "geo_lat": 30.283957,
    "geo_lon": -97.742317,
    "hours": "",
    "price_range": "",
    "restaurant_name": "Thai How Are You?",
    "restaurant_phone": "(512) 482-8919",
    "restaurant_website": "http:///tx/austin/660955-thai-how-are-you/"
  },
  {
    "address": "2906 Fruth Street Austin, TX 78705",
    "geo_lat": 30.295315,
    "geo_lon": -97.74205,
    "hours": "",
    "price_range": "",
    "restaurant_name": "Kitchen For The Soul",
    "restaurant_phone": "(512) 982-6732",
    "restaurant_website": "http:///tx/austin/660969-kitchen-for-the-soul/"
  },
  {
    "address": "518 West 24th Street Austin, TX 78705",
    "geo_lat": 30.287962,
    "geo_lon": -97.742714,
    "hours": "",
    "price_range": "",
    "restaurant_name": "Pinch",
    "restaurant_phone": "(512) 820-6611",
    "restaurant_website": "http:///tx/austin/661101-pinch/"
  },
  {
    "address": "2222 Rio Grande Street Austin, TX 78705",
    "geo_lat": 30.286549,
    "geo_lon": -97.745659,
    "hours": "",
    "price_range": "",
    "restaurant_name": "Utea Pho",
    "restaurant_phone": "(512) 394-7657",
    "restaurant_website": "http:///tx/austin/661102-utea-pho/"
  },
  {
    "address": "2712A Guadalupe Street Austin, TX 78705",
    "geo_lat": 30.292498,
    "geo_lon": -97.741585,
    "hours": "",
    "price_range": "",
    "restaurant_name": "Halal Bros",
    "restaurant_phone": "(512) 284-8105",
    "restaurant_website": "http:///tx/austin/661116-halal-bros/"
  },
  {
    "address": "411 W 23rd St Austin, TX 78705",
    "geo_lat": 30.286196,
    "geo_lon": -97.742562,
    "hours": "",
    "price_range": "",
    "restaurant_name": "Momora Austin Food",
    "restaurant_phone": "(915) 262-8673",
    "restaurant_website": "http:///tx/austin/661172-momora-austin-food/"
  },
  {
    "address": "3101 Guadalupe Street Austin, TX 78705",
    "geo_lat": 30.297569,
    "geo_lon": -97.741081,
    "hours": "",
    "price_range": "",
    "restaurant_name": "Wheatsville Food Coop",
    "restaurant_phone": "(512) 478-2667",
    "restaurant_website": "http:///tx/austin/665633-wheatsville-food-coop/"
  },
  {
    "address": "2912 Guadalupe Street Austin, TX 78705",
    "geo_lat": 30.296019,
    "geo_lon": -97.742668,
    "hours": "",
    "price_range": "",
    "restaurant_name": "Sushi Hi",
    "restaurant_phone": "(512) 477-8433",
    "restaurant_website": "http:///tx/austin/668640-sushi-hi/"
  },
  {
    "address": "1900 University Avenue Austin, TX 78705",
    "geo_lat": 30.281578,
    "geo_lon": -97.740219,
    "hours": "",
    "price_range": "",
    "restaurant_name": "Gabriel's Cafe",
    "restaurant_phone": "(512) 404-3654",
    "restaurant_website": "http:///tx/austin/668658-gabriels-cafe/"
  },
  {
    "address": "2538 Guadalupe Street Austin, TX 78705",
    "geo_lat": 30.29007,
    "geo_lon": -97.741776,
    "hours": "",
    "price_range": "",
    "restaurant_name": "Tiffanys",
    "restaurant_phone": "(512) 284-9085",
    "restaurant_website": "http:///tx/austin/661138-tiffanys/"
  },
  {
    "address": "2222 Guadalupe Street Austin, TX 78705",
    "geo_lat": 30.285536,
    "geo_lon": -97.742004,
    "hours": "",
    "price_range": "",
    "restaurant_name": "Caffe Medici",
    "restaurant_phone": "(512) 474-5730",
    "restaurant_website": "http:///tx/austin/661136-caffe-medici/"
  },
  {
    "address": "3706 Guadalupe Street Austin, TX 78705",
    "geo_lat": 30.302597,
    "geo_lon": -97.738571,
    "hours": "",
    "price_range": "",
    "restaurant_name": "Yaya Cafe & Shaved Ice",
    "restaurant_phone": "(512) 297-2612",
    "restaurant_website": "http:///tx/austin/661206-yaya-cafe-shaved-ice/"
  },
  {
    "address": "2716 1/2 Guadalupe Street Austin, TX 78705",
    "geo_lat": 30.292891,
    "geo_lon": -97.741753,
    "hours": "",
    "price_range": "",
    "restaurant_name": "Don Japanese Kitchen",
    "restaurant_phone": "(281) 725-3686",
    "restaurant_website": "http:///tx/austin/661268-don-japanese-kitchen/"
  },
  {
    "address": "2828 Rio Grande Street Austin, TX 78705",
    "geo_lat": 30.295704,
    "geo_lon": -97.744194,
    "hours": "",
    "price_range": "",
    "restaurant_name": "Cabo Bob's Burritos",
    "restaurant_phone": "(512) 432-1112",
    "restaurant_website": "http:///tx/austin/661273-cabo-bobs-burritos/"
  },
  {
    "address": "2809 San Jacinto Boulevard Austin, TX 78705",
    "geo_lat": 30.291611,
    "geo_lon": -97.734947,
    "hours": "",
    "price_range": "",
    "restaurant_name": "Taco Joint",
    "restaurant_phone": "(512) 473-8223",
    "restaurant_website": "http:///tx/austin/661282-taco-joint/"
  },
  {
    "address": "3016 Guadalupe Street Austin, TX 78705",
    "geo_lat": 30.297697,
    "geo_lon": -97.741928,
    "hours": "",
    "price_range": "",
    "restaurant_name": "Via 313 Pizza",
    "restaurant_phone": "(512) 358-6193",
    "restaurant_website": "http:///tx/austin/665596-via-313-pizza/"
  },
  {
    "address": "2002 Guadalupe Street Austin, TX 78705",
    "geo_lat": 30.282852,
    "geo_lon": -97.74231,
    "hours": "",
    "price_range": "",
    "restaurant_name": "K-Bop",
    "restaurant_phone": "(512) 703-4100",
    "restaurant_website": "http:///tx/austin/665593-k-bop/"
  },
  {
    "address": "2905 San Gabriel Street Austin, TX 78705",
    "geo_lat": 30.297976,
    "geo_lon": -97.747055,
    "hours": "",
    "price_range": "",
    "restaurant_name": "Musashino Sushi Dokoro",
    "restaurant_phone": "(512) 795-8593",
    "restaurant_website": "http:///tx/austin/666545-musashino-sushi-dokoro/"
  },
  {
    "address": "2525 Rio Grande Street Austin, TX 78705",
    "geo_lat": 30.290501,
    "geo_lon": -97.744659,
    "hours": "",
    "price_range": "",
    "restaurant_name": "AJ's Pizzaria",
    "restaurant_phone": "(512) 293-1777",
    "restaurant_website": "http:///tx/austin/776695-ajs-pizzaria/"
  },
  {
    "address": "2512 Rio Grande Street Austin, TX 78705",
    "geo_lat": 30.290546,
    "geo_lon": -97.744652,
    "hours": "",
    "price_range": "",
    "restaurant_name": "The Mighty Cone",
    "restaurant_phone": "(877) 585-1085",
    "restaurant_website": "http:///tx/austin/776785-the-mighty-cone/"
  },
  {
    "address": "706 West 23rd Street Austin, TX 78705",
    "geo_lat": 30.287514,
    "geo_lon": -97.745544,
    "hours": "",
    "price_range": "",
    "restaurant_name": "Arlo's",
    "restaurant_phone": "(512) 840-8585",
    "restaurant_website": "http:///tx/austin/776822-arlos/"
  },
  {
    "address": "2021 Guadalupe St Austin, TX 78705",
    "geo_lat": 30.283213,
    "geo_lon": -97.741753,
    "hours": "",
    "price_range": "",
    "restaurant_name": "Gong Cha Dobie Center",
    "restaurant_phone": "(512) 518-3111",
    "restaurant_website": "http:///tx/austin/777463-gong-cha-dobie-center/"
  },
  {
    "address": "2222 Rio Grande St Austin, TX 78705",
    "geo_lat": 30.286545,
    "geo_lon": -97.745675,
    "hours": "",
    "price_range": "",
    "restaurant_name": "Bao'd Up",
    "restaurant_phone": "(512) 505-8080",
    "restaurant_website": "http:///tx/austin/777999-baod-up/"
  },
  {
    "address": "1104 West 34th Street Austin, TX 78705",
    "geo_lat": 30.303423,
    "geo_lon": -97.745789,
    "hours": "",
    "price_range": "",
    "restaurant_name": "Otherside Deli",
    "restaurant_phone": "(512) 407-9702",
    "restaurant_website": "http:///tx/austin/795425-otherside-deli/"
  },
  {
    "address": "2530 Guadalupe Street Austin, TX 78705",
    "geo_lat": 30.289902,
    "geo_lon": -97.741608,
    "hours": "",
    "price_range": "",
    "restaurant_name": "Mezzeme",
    "restaurant_phone": "(512) 213-0451",
    "restaurant_website": "http:///tx/austin/795474-mezzeme/"
  },
  {
    "address": "3208 Guadalupe Street Austin, TX 78705",
    "geo_lat": 30.29995,
    "geo_lon": -97.74028,
    "hours": "",
    "price_range": "",
    "restaurant_name": "PD Thai Cuisine",
    "restaurant_phone": "(512) 371-8777",
    "restaurant_website": "http:///tx/austin/805834-pd-thai-cuisine/"
  },
  {
    "address": "3110 Guadalupe Street Austin, TX 78705",
    "geo_lat": 30.298401,
    "geo_lon": -97.741119,
    "hours": "",
    "price_range": "",
    "restaurant_name": "Black's BBQ",
    "restaurant_phone": "(512) 524-0801",
    "restaurant_website": "http:///tx/austin/814604-blacks-bbq/"
  },
  {
    "address": "2417 San Antonio Street Austin, TX 78705",
    "geo_lat": 30.288445,
    "geo_lon": -97.742073,
    "hours": "",
    "price_range": "",
    "restaurant_name": "Austin Acai Company",
    "restaurant_phone": "(512) 572-1502",
    "restaurant_website": "http:///tx/austin/816144-austin-acai-company/"
  },
  {
    "address": "501 W 24th St Austin, TX 78705",
    "geo_lat": 30.287565,
    "geo_lon": -97.74295,
    "hours": "",
    "price_range": "",
    "restaurant_name": "Alpetra",
    "restaurant_phone": "(512) 970-4042",
    "restaurant_website": "http:///tx/austin/835492-alpetra/"
  },
  {
    "address": "404 W 26th St Austin, TX 78705",
    "geo_lat": 30.290682,
    "geo_lon": -97.742027,
    "hours": "",
    "price_range": "",
    "restaurant_name": "Pizza Press (Austin)",
    "restaurant_phone": "(512) 808-0474",
    "restaurant_website": "http:///tx/austin/835365-pizza-press-austin/"
  },
  {
    "address": "2928 Guadalupe St Austin, TX 78705",
    "geo_lat": 30.296402,
    "geo_lon": -97.742607,
    "hours": "",
    "price_range": "",
    "restaurant_name": "Austin's Pizza (Guadalupe St)",
    "restaurant_phone": "(512) 717-8774",
    "restaurant_website": "http:///tx/austin/844652-austins-pizza-guadalupe-st/"
  },
  {
    "address": "2323 San Antonio St AUSTIN, TX 78705",
    "geo_lat": 30.286878,
    "geo_lon": -97.742728,
    "hours": "",
    "price_range": "",
    "restaurant_name": "Subway",
    "restaurant_phone": "(512) 476-1803",
    "restaurant_website": "http://www.subway.com"
  },
  {
    "address": "2906 Duval St AUSTIN, TX 78705",
    "geo_lat": 30.291417,
    "geo_lon": -97.734492,
    "hours": "",
    "price_range": "",
    "restaurant_name": "Subway",
    "restaurant_phone": "(512) 322-9111",
    "restaurant_website": "http://www.subway.com"
  },
  {
    "address": "3724 N Lamar Blvd AUSTIN, TX 78705",
    "geo_lat": 30.304619,
    "geo_lon": -97.743468,
    "hours": "",
    "price_range": "",
    "restaurant_name": "Subway",
    "restaurant_phone": "(512) 459-7233",
    "restaurant_website": "http://www.subway.com"
  },
  {
    "address": "3203 Red River St AUSTIN, TX 78705",
    "geo_lat": 30.291254,
    "geo_lon": -97.726567,
    "hours": "",
    "price_range": "",
    "restaurant_name": "Jimmy John's",
    "restaurant_phone": "(512) 499-0100",
    "restaurant_website": "http://www.jimmyjohns.com"
  },
  {
    "address": "201 E 21st St Austin, TX 78705",
    "geo_lat": 30.2828,
    "geo_lon": -97.7371,
    "hours": "",
    "price_range": "",
    "restaurant_name": "Wendy's",
    "restaurant_phone": "(512) 232-1929",
    "restaurant_website": "https://locations.wendys.com/united-states/tx/austin/201-e-21st-st"
  },
  {
    "address": "2402 Guadalupe St Austin, TX 78705",
    "geo_lat": 30.2879,
    "geo_lon": -97.7418,
    "hours": "",
    "price_range": "",
    "restaurant_name": "Baskin-Robbins",
    "restaurant_phone": "(512) 220-0492",
    "restaurant_website": "https://www.baskinrobbins.com?utm_source=Yext&utm_medium=organic&utm_campaign=Yext"
  },
  {
    "address": "1915 Guadalupe St AUSTIN, TX 78705",
    "geo_lat": 30.282521,
    "geo_lon": -97.741693,
    "hours": "",
    "price_range": "",
    "restaurant_name": "Schlotzsky's",
    "restaurant_phone": "(512) 457-1129",
    "restaurant_website": ""
  },
  {
    "address": "2025 Guadalupe St Ste 152  AUSTIN, TX 78705",
    "geo_lat": 30.283729,
    "geo_lon": -97.741752,
    "hours": "",
    "price_range": "",
    "restaurant_name": "Oishi Japanese Fusion",
    "restaurant_phone": "(512) 236-0207",
    "restaurant_website": ""
  },
  {
    "address": "3016 Guadalupe St Ste C200 AUSTIN, TX 78705",
    "geo_lat": 30.297813,
    "geo_lon": -97.741575,
    "hours": "",
    "price_range": "",
    "restaurant_name": "El Greco Greek Taverna",
    "restaurant_phone": "(512) 323-0206",
    "restaurant_website": "http://www.elgrecoaustin.com"
  },
  {
    "address": "104 E 31st St AUSTIN, TX 78705",
    "geo_lat": 30.295193,
    "geo_lon": -97.736543,
    "hours": "",
    "price_range": "$$",
    "restaurant_name": "Frianco's Deli",
    "restaurant_phone": "(512) 482-9980",
    "restaurant_website": "http://www.fricanosdeli.com/"
  },
  {
    "address": "2801 Guadalupe St AUSTIN, TX 78705",
    "geo_lat": 30.293678,
    "geo_lon": -97.741726,
    "hours": "",
    "price_range": "$",
    "restaurant_name": "Torchy's Tacos",
    "restaurant_phone": "(512) 494-8226",
    "restaurant_website": "http://www.torchystacos.com/"
  },
  {
    "address": "2928 Guadalupe St Ste 102 AUSTIN, TX 78705",
    "geo_lat": 30.29625,
    "geo_lon": -97.742616,
    "hours": "",
    "price_range": "$$",
    "restaurant_name": "Tom's Tabooley",
    "restaurant_phone": "(512) 479-7337",
    "restaurant_website": "http://www.tomstabooley.com"
  },
  {
    "address": "3208 Guadalupe St  AUSTIN, TX 78705",
    "geo_lat": 30.299902,
    "geo_lon": -97.740305,
    "hours": "",
    "price_range": "",
    "restaurant_name": "Five Guys Burgers & Fries",
    "restaurant_phone": "(512) 452-4300",
    "restaurant_website": "http://www.fiveguys.com"
  },
  {
    "address": "1910 Guadalupe Street Austin, TX 78705",
    "geo_lat": 30.282553,
    "geo_lon": -97.742226,
    "hours": "",
    "price_range": "$",
    "restaurant_name": "Coco's Cafe",
    "restaurant_phone": "(512) 236-9398",
    "restaurant_website": "http://cocos-cafe.com"
  },
  {
    "address": "415 W 24th St AUSTIN, TX 78705",
    "geo_lat": 30.287644,
    "geo_lon": -97.742223,
    "hours": "",
    "price_range": "$$",
    "restaurant_name": "Big Bite Pizza",
    "restaurant_phone": "(512) 457-4992",
    "restaurant_website": "http://bigbiterestaurant.com/"
  },
  {
    "address": "2000 Guadalupe St AUSTIN, TX 78705",
    "geo_lat": 30.282837,
    "geo_lon": -97.742391,
    "hours": "",
    "price_range": "$$",
    "restaurant_name": "Hai Ky",
    "restaurant_phone": "(512) 480-0057",
    "restaurant_website": "http://haikyonline.com/"
  },
  {
    "address": "2604 Guadalupe St AUSTIN, TX 78705",
    "geo_lat": 30.290736,
    "geo_lon": -97.741416,
    "hours": "",
    "price_range": "",
    "restaurant_name": "Mings Cafe",
    "restaurant_phone": "(512) 476-8888",
    "restaurant_website": ""
  },
  {
    "address": "1908 Guadalupe St AUSTIN, TX 78705",
    "geo_lat": 30.282289,
    "geo_lon": -97.742187,
    "hours": "",
    "price_range": "$$",
    "restaurant_name": "Pho Thaison",
    "restaurant_phone": "(512) 482-0146",
    "restaurant_website": "http://www.phothaison.com"
  },
  {
    "address": "2316 Guadalupe St Austin, TX 78705",
    "geo_lat": 30.286868,
    "geo_lon": -97.742004,
    "hours": "",
    "price_range": "$",
    "restaurant_name": "Potbelly Sandwich Shop",
    "restaurant_phone": "(512) 687-1423",
    "restaurant_website": "http://www.potbelly.com/UT"
  },
  {
    "address": "2002 Guadalupe St Ste B AUSTIN, TX 78705",
    "geo_lat": 30.282787,
    "geo_lon": -97.74216,
    "hours": "",
    "price_range": "",
    "restaurant_name": "Bite Mi",
    "restaurant_phone": "(512) 236-1104",
    "restaurant_website": "http://bitemi-austin.com"
  },
  {
    "address": "2100 Guadalupe St AUSTIN, TX 78705",
    "geo_lat": 30.283996,
    "geo_lon": -97.741984,
    "hours": "",
    "price_range": "$",
    "restaurant_name": "Rasta Pasta",
    "restaurant_phone": "(512) 323-0206",
    "restaurant_website": ""
  },
  {
    "address": "1004 W 24th St Austin, TX 78705",
    "geo_lat": 30.288346,
    "geo_lon": -97.748326,
    "hours": "",
    "price_range": "$$",
    "restaurant_name": "Cuatros",
    "restaurant_phone": "(512) 243-6361",
    "restaurant_website": ""
  },
  {
    "address": "2402 Guadalupe St Austin, TX 78705",
    "geo_lat": 30.287834,
    "geo_lon": -97.741797,
    "hours": "",
    "price_range": "$$$",
    "restaurant_name": "Qdoba",
    "restaurant_phone": "(512) 323-0206",
    "restaurant_website": "http://www.qdoba.com"
  },
  {
    "address": "3208 Guadalupe St Austin, TX 78705",
    "geo_lat": 30.299704,
    "geo_lon": -97.740074,
    "hours": "",
    "price_range": "$$",
    "restaurant_name": "Pad Thai",
    "restaurant_phone": "(512) 371-8777",
    "restaurant_website": ""
  },
  {
    "address": "3016 Guadalupe St AUSTIN, TX 78705",
    "geo_lat": 30.297605,
    "geo_lon": -97.741846,
    "hours": "",
    "price_range": "$",
    "restaurant_name": "Another Broken Egg",
    "restaurant_phone": "(512) 777-4482",
    "restaurant_website": ""
  },
  {
    "address": "2382 San Antonio St AUSTIN, TX 78705",
    "geo_lat": 30.287674,
    "geo_lon": -97.742671,
    "hours": "",
    "price_range": "$",
    "restaurant_name": "The Sugar Shack BBQ",
    "restaurant_phone": "(512) 464-1151",
    "restaurant_website": "http://www.sugarshackbbq.com"
  },
  {
    "address": "2401 San Gabriel St AUSTIN, TX 78705",
    "geo_lat": 30.288516,
    "geo_lon": -97.747464,
    "hours": "",
    "price_range": "$",
    "restaurant_name": "DOGellos Chili Dogs",
    "restaurant_phone": "(512) 657-6508",
    "restaurant_website": ""
  },
  {
    "address": "2712 A Guadalupe St. Austin, TX 78705",
    "geo_lat": 30.292511,
    "geo_lon": -97.741669,
    "hours": "",
    "price_range": "$$",
    "restaurant_name": "The Halal Guys",
    "restaurant_phone": "(512) 284-8105",
    "restaurant_website": ""
  },
  {
    "address": "1900 University Avenue Austin, TX 78705",
    "geo_lat": 30.28197,
    "geo_lon": -97.740174,
    "hours": "",
    "price_range": "$",
    "restaurant_name": "Carillon Restaurant",
    "restaurant_phone": "(512) 404-3655",
    "restaurant_website": "http://www.thecarillonrestaurant.com/"
  },
  {
    "address": "3418 N Lamar Blvd Austin, TX 78705",
    "geo_lat": 30.30317,
    "geo_lon": -97.7444,
    "hours": "",
    "price_range": "$$",
    "restaurant_name": "Cafe Express",
    "restaurant_phone": "(512) 452-9888",
    "restaurant_website": "http://www.cafe-express.com/"
  },
  {
    "address": "2900 Rio Grande Street Austin, TX 78705",
    "geo_lat": 30.296092,
    "geo_lon": -97.743966,
    "hours": "",
    "price_range": "$",
    "restaurant_name": "Texas French Bread",
    "restaurant_phone": "(512) 499-0544",
    "restaurant_website": ""
  },
  {
    "address": "2522 Guadalupe St Austin, TX 78705",
    "geo_lat": 30.289778,
    "geo_lon": -97.741528,
    "hours": "",
    "price_range": "$",
    "restaurant_name": "Fuzzy's Taco Shop (Guadalupe St)",
    "restaurant_phone": "(512) 323-0206",
    "restaurant_website": ""
  },
  {
    "address": "2610 Guadalupe St Austin, TX 78705",
    "geo_lat": 30.29076,
    "geo_lon": -97.741373,
    "hours": "",
    "price_range": "$",
    "restaurant_name": "Texas Showdown Saloon",
    "restaurant_phone": "(512) 472-2010",
    "restaurant_website": ""
  },
  {
    "address": "2522 Guadalupe St Austin, TX 78705",
    "geo_lat": 30.290012,
    "geo_lon": -97.741406,
    "hours": "",
    "price_range": "$",
    "restaurant_name": "Terra Burger-All Natural All Organic Hamburgers",
    "restaurant_phone": "(866) 967-6359",
    "restaurant_website": ""
  },
  {
    "address": "2025 Guadalupe Street #107 Austin, TX 78705",
    "geo_lat": 30.28339,
    "geo_lon": -97.74132,
    "hours": "",
    "price_range": "$",
    "restaurant_name": "Munchy Mart",
    "restaurant_phone": "(361) 765-3066",
    "restaurant_website": ""
  },
  {
    "address": "2909 Guadalupe Street Austin, TX 78705",
    "geo_lat": 30.295632,
    "geo_lon": -97.7424,
    "hours": "",
    "price_range": "$$$$",
    "restaurant_name": "Milto's Pizza Pub",
    "restaurant_phone": "(512) 476-1021",
    "restaurant_website": ""
  },
  {
    "address": "3009 Guadalupe St Austin, TX 78705",
    "geo_lat": 30.29687,
    "geo_lon": -97.74188,
    "hours": "",
    "price_range": "$$",
    "restaurant_name": "Thai Kitchen",
    "restaurant_phone": "(512) 474-2575",
    "restaurant_website": "http://www.thaikitchenofaustin.com/"
  },
  {
    "address": "2820 Guadalupe St Austin, TX 78705",
    "geo_lat": 30.294878,
    "geo_lon": -97.742958,
    "hours": "",
    "price_range": "",
    "restaurant_name": "Longhorn Pizza & Grill",
    "restaurant_phone": "(512) 373-3978",
    "restaurant_website": "http:///tx/austin/542247-longhorn-pizza-grill/"
  },
  {
    "address": "604 W 29th St AUSTIN, TX 78705",
    "geo_lat": 30.295439,
    "geo_lon": -97.742863,
    "hours": "",
    "price_range": "",
    "restaurant_name": "Pizza Classics",
    "restaurant_phone": "(512) 320-8080",
    "restaurant_website": ""
  },
  {
    "address": "2938 Guadalupe St AUSTIN, TX 78705",
    "geo_lat": 30.296657,
    "geo_lon": -97.74215,
    "hours": "",
    "price_range": "$",
    "restaurant_name": "El Patio",
    "restaurant_phone": "(512) 476-5955",
    "restaurant_website": "http://elpatioaustin.com"
  },
  {
    "address": "2928 Guadalupe St Austin, TX 78705",
    "geo_lat": 30.296358,
    "geo_lon": -97.742558,
    "hours": "",
    "price_range": "",
    "restaurant_name": "Austin?s Pizza",
    "restaurant_phone": "(512) 795-8888",
    "restaurant_website": "http:///tx/austin/543620-austins-pizza/"
  },
  {
    "address": "705 W 24th St Austin, TX 78705",
    "geo_lat": 30.287727,
    "geo_lon": -97.745575,
    "hours": "",
    "price_range": "",
    "restaurant_name": "Mango8",
    "restaurant_phone": "(512) 519-9477",
    "restaurant_website": "http:///tx/austin/546632-mango8/"
  },
  {
    "address": "1914 Guadalupe St Ste B Austin, TX 78705",
    "geo_lat": 30.282644,
    "geo_lon": -97.742416,
    "hours": "",
    "price_range": "",
    "restaurant_name": "China's Family Restaurant",
    "restaurant_phone": "(512) 284-7671",
    "restaurant_website": "http:///tx/austin/573488-chinas-family-restaurant/"
  },
  {
    "address": "3528 Guadalupe St Austin, TX 78705",
    "geo_lat": 30.290072,
    "geo_lon": -97.741777,
    "hours": "",
    "price_range": "",
    "restaurant_name": "Yatai",
    "restaurant_phone": "(512) 284-9085",
    "restaurant_website": ""
  },
  {
    "address": "3016 Guadalupe St Ste 200 Austin, TX 78705",
    "geo_lat": 30.297609,
    "geo_lon": -97.741842,
    "hours": "",
    "price_range": "",
    "restaurant_name": "Wild Wood Bake House",
    "restaurant_phone": "(512) 327-9660",
    "restaurant_website": ""
  },
  {
    "address": "2908 Fruth St Austin, TX 78705",
    "geo_lat": 30.295504,
    "geo_lon": -97.741759,
    "hours": "",
    "price_range": "",
    "restaurant_name": "The Mix-Up",
    "restaurant_phone": "(512) 545-3206",
    "restaurant_website": ""
  },
  {
    "address": "411 W 23rd St Austin, TX 78705",
    "geo_lat": 30.286199,
    "geo_lon": -97.742562,
    "hours": "",
    "price_range": "",
    "restaurant_name": "Glory Roll",
    "restaurant_phone": "(512) 365-0891",
    "restaurant_website": ""
  },
  {
    "address": "2222 Rio Grande St Ste 100 Austin, TX 78705",
    "geo_lat": 30.28671,
    "geo_lon": -97.744802,
    "hours": "",
    "price_range": "",
    "restaurant_name": "Raku Sushi & Asian Bistro",
    "restaurant_phone": "(512) 297-2778",
    "restaurant_website": ""
  },
  {
    "address": "2100B Guadalupe St Austin, TX 78705",
    "geo_lat": 30.284027,
    "geo_lon": -97.742277,
    "hours": "",
    "price_range": "",
    "restaurant_name": "Teji?s Indian Restaurant",
    "restaurant_phone": "(512) 215-0307",
    "restaurant_website": ""
  },
  {
    "address": "1914 Guadalupe St Ste A Austin, TX 78705",
    "geo_lat": 30.282632,
    "geo_lon": -97.742419,
    "hours": "",
    "price_range": "",
    "restaurant_name": "Look Noodles & More",
    "restaurant_phone": "(737) 484-1378",
    "restaurant_website": "http:///tx/austin/526229-look-noodles-more/"
  },
  {
    "address": "2348 Guadalupe St Austin, TX 78705",
    "geo_lat": 30.286771,
    "geo_lon": -97.741778,
    "hours": "",
    "price_range": "",
    "restaurant_name": "Which Wich UT",
    "restaurant_phone": "(512) 478-9424",
    "restaurant_website": ""
  },
  {
    "address": "2230 Guadalupe St Austin, TX 78705",
    "geo_lat": 30.285667,
    "geo_lon": -97.742027,
    "hours": "",
    "price_range": "",
    "restaurant_name": "Chipotle",
    "restaurant_phone": "(512) 320-0238",
    "restaurant_website": "http://www.chipotle.com"
  },
  {
    "address": "2270 Guadalupe St AUSTIN, TX 78705",
    "geo_lat": 30.286326,
    "geo_lon": -97.742046,
    "hours": "",
    "price_range": "",
    "restaurant_name": "Moe's Southwest Grill",
    "restaurant_phone": "(512) 478-6637",
    "restaurant_website": "http://www.moes.com"
  },
  {
    "address": "2716 1/2 Guadalupe St AUSTIN, TX 78705",
    "geo_lat": 30.29283,
    "geo_lon": -97.741653,
    "hours": "",
    "price_range": "$",
    "restaurant_name": "The Magic Wok",
    "restaurant_phone": "(210) 474-7770",
    "restaurant_website": "http://www.magicwok.us"
  },
  {
    "address": "404 W 26th St AUSTIN, TX 78705",
    "geo_lat": 30.290721,
    "geo_lon": -97.742011,
    "hours": "",
    "price_range": "$$",
    "restaurant_name": "Spicy Pickle",
    "restaurant_phone": "(512) 473-8441",
    "restaurant_website": "http://www.spicypickle.com"
  },
  {
    "address": "1906 Guadalupe St Austin, TX 78705",
    "geo_lat": 30.282425,
    "geo_lon": -97.742325,
    "hours": "",
    "price_range": "",
    "restaurant_name": "Tapioca House",
    "restaurant_phone": "(512) 482-9880",
    "restaurant_website": ""
  },
  {
    "address": "2426 Guadalupe St AUSTIN, TX 78705",
    "geo_lat": 30.288551,
    "geo_lon": -97.741762,
    "hours": "",
    "price_range": "$",
    "restaurant_name": "Mellow Mushroom",
    "restaurant_phone": "(512) 472-6356",
    "restaurant_website": "http://mellowmushroom.com"
  },
  {
    "address": "2808 Guadalupe St AUSTIN, TX 78705",
    "geo_lat": 30.293876,
    "geo_lon": -97.742311,
    "hours": "",
    "price_range": "$",
    "restaurant_name": "Dirty Martin's",
    "restaurant_phone": "(512) 477-3173",
    "restaurant_website": "http://www.dirtymartins.com"
  },
  {
    "address": "411 W 24th St AUSTIN, TX 78705",
    "geo_lat": 30.287618,
    "geo_lon": -97.742134,
    "hours": "",
    "price_range": "",
    "restaurant_name": "Kismet Cafe",
    "restaurant_phone": "(512) 236-1811",
    "restaurant_website": ""
  },
  {
    "address": "2422 Guadalupe St AUSTIN, TX 78705",
    "geo_lat": 30.288463,
    "geo_lon": -97.741748,
    "hours": "",
    "price_range": "$",
    "restaurant_name": "Texadelphia",
    "restaurant_phone": "(512) 480-0107",
    "restaurant_website": "http://www.texadelphia.com"
  },
  {
    "address": "2912 Guadalupe St AUSTIN, TX 78705",
    "geo_lat": 30.295914,
    "geo_lon": -97.742676,
    "hours": "",
    "price_range": "",
    "restaurant_name": "Burger Tx",
    "restaurant_phone": "(512) 477-8433",
    "restaurant_website": ""
  },
  {
    "address": "415 W 24th St AUSTIN, TX 78705",
    "geo_lat": 30.287632,
    "geo_lon": -97.742346,
    "hours": "",
    "price_range": "",
    "restaurant_name": "The Italian Longhorn",
    "restaurant_phone": "(512) 457-4992",
    "restaurant_website": ""
  },
  {
    "address": "2538 Guadalupe St AUSTIN, TX 78705",
    "geo_lat": 30.290052,
    "geo_lon": -97.741614,
    "hours": "",
    "price_range": "$",
    "restaurant_name": "East Side King @ The Hole In The Wall",
    "restaurant_phone": "(512) 477-4747",
    "restaurant_website": "http://www.holeinthewallaustin.com"
  },
  {
    "address": "2000 Guadalupe Street Austin, TX 78705",
    "geo_lat": 30.2828,
    "geo_lon": -97.7423,
    "hours": "",
    "price_range": "",
    "restaurant_name": "Taco Bell Cantina",
    "restaurant_phone": "(737) 202-4309",
    "restaurant_website": "https://locations.tacobell.com/tx/austin/2000-guadalupe-street.html?utm_source=yext&utm_campaign=yextpowerlistings&utm_medium=referral&utm_term=032513&utm_content=website"
  }
]